{
  "project_info": {
    "project_number": "194049946127",
    "project_id": "foodg-21e79",
    "storage_bucket": "foodg-21e79.appspot.com"
  },
  "client": [
    {
      "client_info": {
        "mobilesdk_app_id": "1:194049946127:android:ffb12ab3dd76ac2031697a",
        "android_client_info": {
          "package_name": "com.smartersvision.foodg"
        }
      },
      "oauth_client": [
        {
          "client_id": "194049946127-j2mmtb1r46bo2ft9p47sn6ne6hs5712q.apps.googleusercontent.com",
          "client_type": 3
        }
      ],
      "api_key": [
        {
          "current_key": "AIzaSyA2zeFrtE5ksEk-RhJ4hvS_mypQP9zbCpw"
        }
      ],
      "services": {
        "appinvite_service": {
          "other_platform_oauth_client": [
            {
              "client_id": "194049946127-j2mmtb1r46bo2ft9p47sn6ne6hs5712q.apps.googleusercontent.com",
              "client_type": 3
            }
          ]
        }
      }
    }
  ],
  "configuration_version": "1"
}